<?xml version="1.0" encoding="iso-8859-1"?>
<!-- Generator: Adobe Illustrator 19.0.0, SVG Export Plug-In . SVG Version: 6.00 Build 0)  -->
<svg version="1.1" id="Capa_1" xmlns="http://www.w3.org/2000/svg" xmlns:xlink="http://www.w3.org/1999/xlink" x="0px" y="0px"
	 viewBox="0 0 512 512" style="enable-background:new 0 0 512 512;" xml:space="preserve">
<rect x="226" y="58.5" style="fill:#0A4EAF;" width="60" height="60"/>
<rect x="256" y="58.5" style="fill:#063E8B;" width="30" height="60"/>
<path style="fill:#E6F9FF;" d="M512,453.5H0v-340h512V453.5z"/>
<path style="fill:#CCEFFF;" d="M512,453.5H256v-340h256V453.5z"/>
<g>
	<path style="fill:#7D8AFF;" d="M160,278.5L160,278.5c-16.569,0-30-13.431-30-30v-20c0-16.569,13.431-30,30-30l0,0
		c16.569,0,30,13.431,30,30v20C190,265.069,176.569,278.5,160,278.5z"/>
	<path style="fill:#7D8AFF;" d="M160,288.5c-44.183,0-80,35.817-80,80h160C240,324.317,204.183,288.5,160,288.5z"/>
</g>
<g>
	<rect x="382" y="348.5" style="fill:#86D6F2;" width="60" height="30"/>
	<rect x="295" y="188.5" style="fill:#86D6F2;" width="147" height="30"/>
	<rect x="295" y="248.5" style="fill:#86D6F2;" width="117" height="30"/>
</g>
<g>
</g>
<g>
</g>
<g>
</g>
<g>
</g>
<g>
</g>
<g>
</g>
<g>
</g>
<g>
</g>
<g>
</g>
<g>
</g>
<g>
</g>
<g>
</g>
<g>
</g>
<g>
</g>
<g>
</g>
</svg>
