<?xml version="1.0" encoding="iso-8859-1"?>
<!-- Generator: Adobe Illustrator 19.0.0, SVG Export Plug-In . SVG Version: 6.00 Build 0)  -->
<svg version="1.1" id="Capa_1" xmlns="http://www.w3.org/2000/svg" xmlns:xlink="http://www.w3.org/1999/xlink" x="0px" y="0px"
	 viewBox="0 0 512 512" style="enable-background:new 0 0 512 512;" xml:space="preserve">
<polygon style="fill:#B7E5FF;" points="0,114.759 326.621,114.759 512,114.759 512,397.241 0,397.241 "/>
<polygon style="fill:#FEC007;" points="52.966,185.379 52.966,220.69 282.483,220.69 282.483,185.379 167.724,185.379 "/>
<rect x="70.621" y="220.69" style="fill:#4DAAF5;" width="194.207" height="141.241"/>
<g>
	<path style="fill:#FB4239;" d="M108.579,150.069L108.579,150.069c-11.211,0-20.303,9.092-20.303,20.303v15.007h79.448
		l-47.846-31.894C116.533,151.252,112.605,150.06,108.579,150.069z"/>
	<path style="fill:#FB4239;" d="M247.172,185.379v-15.007c0-11.211-9.092-20.303-20.303-20.303l0,0
		c-4.017,0-7.936,1.192-11.273,3.416l-47.872,31.894H247.172z"/>
</g>
<rect x="158.897" y="185.379" style="fill:#FEC007;" width="17.655" height="176.552"/>
<path style="fill:#A6D5FA;" d="M512,114.759h-26.483C448.397,241.62,356.502,345.229,234.99,397.241H512V114.759z"/>
<g>
	<rect x="326.621" y="176.552" style="fill:#2195F2;" width="17.655" height="17.655"/>
	<rect x="326.621" y="211.862" style="fill:#2195F2;" width="17.655" height="17.655"/>
	<rect x="326.621" y="247.172" style="fill:#2195F2;" width="17.655" height="17.655"/>
	<rect x="326.621" y="282.483" style="fill:#2195F2;" width="17.655" height="17.655"/>
	<rect x="326.621" y="317.793" style="fill:#2195F2;" width="17.655" height="17.655"/>
	<rect x="326.621" y="353.103" style="fill:#2195F2;" width="17.655" height="17.655"/>
	<rect x="326.621" y="141.241" style="fill:#2195F2;" width="17.655" height="17.655"/>
	<rect x="414.897" y="353.103" style="fill:#2195F2;" width="70.621" height="17.655"/>
	<rect x="379.586" y="317.793" style="fill:#2195F2;" width="105.931" height="17.655"/>
</g>
<path style="fill:#3F51B4;" d="M432.552,264.828h-17.655c-9.754,0-17.655-7.901-17.655-17.655h-17.655
	c0,19.5,15.81,35.31,35.31,35.31v17.655h17.655v-17.655c19.5,0,35.31-15.81,35.31-35.31s-15.81-35.31-35.31-35.31h-17.655
	c-9.754,0-17.655-7.901-17.655-17.655c0-9.754,7.901-17.655,17.655-17.655h17.655c9.754,0,17.655,7.901,17.655,17.655h17.655
	c0-19.5-15.81-35.31-35.31-35.31v-17.655h-17.655v17.655c-19.5,0-35.31,15.81-35.31,35.31s15.81,35.31,35.31,35.31h17.655
	c9.754,0,17.655,7.901,17.655,17.655S442.306,264.828,432.552,264.828z"/>
<g>
</g>
<g>
</g>
<g>
</g>
<g>
</g>
<g>
</g>
<g>
</g>
<g>
</g>
<g>
</g>
<g>
</g>
<g>
</g>
<g>
</g>
<g>
</g>
<g>
</g>
<g>
</g>
<g>
</g>
</svg>
