<?xml version="1.0" encoding="utf-8"?>
<!-- Generator: Adobe Illustrator 19.0.0, SVG Export Plug-In . SVG Version: 6.00 Build 0)  -->
<svg version="1.1" id="Capa_1" xmlns="http://www.w3.org/2000/svg" xmlns:xlink="http://www.w3.org/1999/xlink" x="0px" y="0px"
	 viewBox="216 -216 512 512" style="enable-background:new 216 -216 512 512;" xml:space="preserve">
<style type="text/css">
	.st0{fill:#D98868;}
	.st1{fill:#EBAD88;}
	.st2{fill:#E8916F;}
	.st3{fill:#8C4A37;}
	.st4{fill:#804231;}
	.st5{fill:#FF2C5C;}
	.st6{fill:#E62753;}
	.st7{fill:#47D5E6;}
	.st8{fill:#22C0D4;}
	.st9{fill:#FFD659;}
	.st10{fill:#FFBD54;}
	.st11{display:none;}
	.st12{display:inline;}
</style>
<rect x="455" y="206" class="st0" width="34" height="38"/>
<g>
	<g>
		<ellipse class="st0" cx="410.5" cy="150" rx="22.5" ry="26"/>
		<ellipse class="st0" cx="533.5" cy="150" rx="22.5" ry="26"/>
	</g>
	<path class="st1" d="M413,159.2v-36.6C413,93,437,69,466.6,69h10.8C507,69,531,93,531,122.6v36.6c0,31.4-25.4,56.8-56.8,56.8h-4.4
		C438.4,216,413,190.6,413,159.2z"/>
	<path class="st2" d="M477.4,69h-10.8c-3.3,0-6.5,0.3-9.6,0.9c25,4.5,44,26.4,44,52.7v36.6c0,27-18.8,49.5-44,55.3
		c4.1,0.9,8.4,1.5,12.8,1.5h4.4c31.4,0,56.8-25.4,56.8-56.8v-36.6C531,93,507,69,477.4,69z"/>
	<g>
		<path class="st3" d="M534.1,137.5c-1.6,4.3-7.1,5.9-10.8,3.1c-10.7-8.2-13-32.3-13-32.3c-17.9-10.3-20.9-21.6-20.9-21.6
			c-10.4,17.2-55.7,21.6-55.7,21.6s-2.3,24-13,32.3c-3.7,2.8-9.1,1.2-10.8-3.1c-5.1-13.1-2-29.2-2-29.2s1.8-43.9,41.3-50.4
			c41.9-6.9,49.2,7.4,49.2,7.4c39.3,1.9,37.6,43,37.6,43S539.1,124.4,534.1,137.5z"/>
	</g>
	<g>
		<path class="st4" d="M536.1,108.3c0,0,1.7-41.1-37.6-43c0,0-6.8-13.4-45-8.1c6.1,1.3,9.8,3.3,12,5c2.5,1.9,5.6,3.2,8.8,3.7
			c27.9,4.6,31.4,31.2,31.8,39.7c1.3,0.9,2.7,1.8,4.3,2.7c0,0,2.3,24,13,32.3c3.7,2.8,9.1,1.2,10.8-3.1
			C539.1,124.4,536.1,108.3,536.1,108.3z"/>
	</g>
</g>
<path class="st5" d="M536,280.5v8H408v-8c0-23.2,18.9-42,42.3-42h43.4C517.1,238.5,536,257.3,536,280.5z"/>
<path class="st6" d="M493.7,238.5h-30c23.4,0,42.3,18.8,42.3,42v8h30v-8C536,257.3,517.1,238.5,493.7,238.5z"/>
<rect x="455" y="-58.5" class="st0" width="34" height="38"/>
<g>
	<g>
		<ellipse class="st0" cx="410.5" cy="-114.5" rx="22.5" ry="26"/>
		<ellipse class="st0" cx="533.5" cy="-114.5" rx="22.5" ry="26"/>
	</g>
	<path class="st1" d="M413-105.3v-36.6c0-29.6,24-53.6,53.6-53.6h10.8c29.6,0,53.6,24,53.6,53.6v36.6c0,31.4-25.4,56.8-56.8,56.8
		h-4.4C438.4-48.5,413-73.9,413-105.3z"/>
	<path class="st2" d="M477.4-195.5h-10.8c-3.3,0-6.5,0.3-9.6,0.9c25,4.5,44,26.4,44,52.7v36.6c0,27-18.8,49.5-44,55.3
		c4.1,0.9,8.4,1.5,12.8,1.5h4.4c31.4,0,56.8-25.4,56.8-56.8v-36.6C531-171.5,507-195.5,477.4-195.5z"/>
	<g>
		<path class="st3" d="M534.1-127c-1.6,4.3-7.1,5.9-10.8,3.1c-10.7-8.2-13-32.3-13-32.3c-17.9-10.3-20.9-21.6-20.9-21.6
			c-10.4,17.2-55.7,21.6-55.7,21.6s-2.3,24-13,32.3c-3.7,2.8-9.1,1.2-10.8-3.1c-5.1-13.1-2-29.2-2-29.2s1.8-43.9,41.3-50.4
			c41.9-6.9,49.2,7.4,49.2,7.4c39.3,1.9,37.6,43,37.6,43S539.1-140.1,534.1-127z"/>
	</g>
	<g>
		<path class="st4" d="M536.1-156.2c0,0,1.7-41.1-37.6-43c0,0-6.8-13.4-45-8.1c6.1,1.3,9.8,3.3,12,5c2.5,1.9,5.6,3.2,8.8,3.7
			c27.9,4.6,31.4,31.2,31.8,39.7c1.3,0.9,2.7,1.8,4.3,2.7c0,0,2.3,24,13,32.3c3.7,2.8,9.1,1.2,10.8-3.1
			C539.1-140.1,536.1-156.2,536.1-156.2z"/>
	</g>
</g>
<path class="st5" d="M536,16v8H408v-8c0-23.2,18.9-42,42.3-42h43.4C517.1-26,536-7.2,536,16z"/>
<path class="st6" d="M493.7-26h-30C487.1-26,506-7.2,506,16v8h30v-8C536-7.2,517.1-26,493.7-26z"/>
<rect x="290.5" y="134.9" class="st0" width="34" height="38"/>
<g>
	<g>
		<ellipse class="st0" cx="246" cy="78.9" rx="22.5" ry="26"/>
		<ellipse class="st0" cx="369" cy="78.9" rx="22.5" ry="26"/>
	</g>
	<path class="st1" d="M248.5,88.1V51.5c0-29.6,24-53.6,53.6-53.6h10.8c29.6,0,53.6,24,53.6,53.6v36.6c0,31.4-25.4,56.8-56.8,56.8
		h-4.4C273.9,144.9,248.5,119.5,248.5,88.1z"/>
	<path class="st2" d="M312.9-2.1h-10.8c-3.3,0-6.5,0.3-9.6,0.9c25,4.5,44,26.4,44,52.7v36.6c0,27-18.8,49.5-44,55.3
		c4.1,0.9,8.4,1.5,12.8,1.5h4.4c31.4,0,56.8-25.4,56.8-56.8V51.5C366.5,21.9,342.5-2.1,312.9-2.1z"/>
	<g>
		<path class="st3" d="M369.6,66.4c-1.6,4.3-7.1,5.9-10.8,3.1c-10.7-8.2-13-32.3-13-32.3c-17.9-10.3-20.9-21.6-20.9-21.6
			c-10.4,17.2-55.7,21.6-55.7,21.6s-2.3,24-13,32.3c-3.7,2.8-9.1,1.2-10.8-3.1c-5.1-13.1-2-29.2-2-29.2s1.8-43.9,41.3-50.4
			c41.9-6.9,49.2,7.4,49.2,7.4c39.3,1.9,37.6,43,37.6,43S374.6,53.3,369.6,66.4z"/>
	</g>
	<g>
		<path class="st4" d="M371.6,37.2c0,0,1.7-41.1-37.6-43c0,0-6.8-13.4-45-8.1c6.1,1.3,9.8,3.3,12,5c2.5,1.9,5.6,3.2,8.8,3.7
			c27.9,4.6,31.4,31.2,31.8,39.7c1.3,0.9,2.7,1.8,4.3,2.7c0,0,2.3,24,13,32.3c3.7,2.8,9.1,1.2,10.8-3.1
			C374.6,53.3,371.6,37.2,371.6,37.2z"/>
	</g>
</g>
<path class="st7" d="M371.5,209.4v8h-128v-8c0-23.2,18.9-42,42.3-42h43.4C352.6,167.4,371.5,186.2,371.5,209.4z"/>
<path class="st8" d="M329.2,167.4h-30c23.4,0,42.3,18.8,42.3,42v8h30v-8C371.5,186.2,352.6,167.4,329.2,167.4z"/>
<rect x="619.5" y="134.9" class="st0" width="34" height="38"/>
<g>
	<g>
		<ellipse class="st0" cx="575" cy="78.9" rx="22.5" ry="26"/>
		<ellipse class="st0" cx="698" cy="78.9" rx="22.5" ry="26"/>
	</g>
	<path class="st1" d="M577.5,88.1V51.5c0-29.6,24-53.6,53.6-53.6h10.8c29.6,0,53.6,24,53.6,53.6v36.6c0,31.4-25.4,56.8-56.8,56.8
		h-4.4C602.9,144.9,577.5,119.5,577.5,88.1z"/>
	<path class="st2" d="M641.9-2.1h-10.8c-3.3,0-6.5,0.3-9.6,0.9c25,4.5,44,26.4,44,52.7v36.6c0,27-18.8,49.5-44,55.3
		c4.1,0.9,8.4,1.5,12.8,1.5h4.4c31.4,0,56.8-25.4,56.8-56.8V51.5C695.5,21.9,671.5-2.1,641.9-2.1z"/>
	<g>
		<path class="st3" d="M698.6,66.4c-1.6,4.3-7.1,5.9-10.8,3.1c-10.7-8.2-13-32.3-13-32.3c-17.9-10.3-20.9-21.6-20.9-21.6
			c-10.4,17.2-55.7,21.6-55.7,21.6s-2.3,24-13,32.3c-3.7,2.8-9.1,1.2-10.8-3.1c-5-13.1-2-29.2-2-29.2s1.8-43.9,41.3-50.4
			c41.9-6.9,49.2,7.4,49.2,7.4c39.3,1.9,37.6,43,37.6,43S703.6,53.3,698.6,66.4z"/>
	</g>
	<g>
		<path class="st4" d="M700.6,37.2c0,0,1.7-41.1-37.6-43c0,0-6.8-13.4-45-8.1c6.1,1.3,9.8,3.3,12,5c2.5,1.9,5.6,3.2,8.8,3.7
			c27.9,4.6,31.4,31.2,31.8,39.7c1.3,0.9,2.7,1.8,4.3,2.7c0,0,2.3,24,13,32.3c3.7,2.8,9.1,1.2,10.8-3.1
			C703.6,53.3,700.6,37.2,700.6,37.2z"/>
	</g>
</g>
<path class="st9" d="M700.5,209.4v8h-128v-8c0-23.2,18.9-42,42.3-42h43.4C681.6,167.4,700.5,186.2,700.5,209.4z"/>
<path class="st10" d="M658.2,167.4h-30c23.4,0,42.3,18.8,42.3,42v8h30v-8C700.5,186.2,681.6,167.4,658.2,167.4z"/>
<g class="st11">
	<path class="st12" d="M533.7,183.5c16.4-0.1,29.8-15.1,29.8-33.5c0-14.1-7.7-26.3-19-31.2c-0.1-5.2-0.6-9.4-0.9-11.1
		c0-3-0.3-13-4.7-23.2c-4.7-11-14.9-24.2-36.7-26.5c-5.5-5.4-19.7-13.3-54.2-7.6c-18.7,3.1-32.9,14.2-41.1,31.9
		c-5.3,11.6-6.3,22.4-6.5,25c-0.2,1.5-0.9,5.8-1,11.4c-11.3,4.9-19,17.1-19,31.2c0,18.4,13.3,33.4,29.8,33.5
		c6.9,16.8,20.6,29.7,37.2,36v11.6c-26.2,1.4-47,23.1-47,49.4v8c0,4.1,3.4,7.5,7.5,7.5h128c4.1,0,7.5-3.4,7.5-7.5v-8
		c0-26.4-20.8-48-47-49.4v-11.6C513.1,213.2,526.9,200.3,533.7,183.5z M537.9,167.7c0.9-6.8,0.4-10.4,0.6-23.2
		c2.3-2.6,3.2-5.7,4.1-9.1c3.6,3.4,5.9,8.8,5.9,14.6C548.5,158.3,544,165.4,537.9,167.7z M415.4,108.6c0-0.1,0.5-9.8,5.2-19.9
		c6.1-13.2,16.1-21.1,29.9-23.4c31.4-5.2,40.1,2.3,41.4,3.7c1,2.7,3.2,3.7,6.2,3.8c13.2,0.6,22,6.3,26.9,17.3
		c3.9,8.8,3.6,17.9,3.6,17.9c-0.1,1.8,1.4,7.1,0.8,15.8c0,0,0,0,0,0c-0.3,3.9-1,7.4-2,10.4c-5.5-5-8.8-18.8-9.6-26.6
		c-0.2-2.4-1.6-4.6-3.7-5.8c-13.9-8-17.1-16.1-17.4-17.1c-0.7-3-3-5.1-6-5.6c-3-0.5-6,1.1-7.6,3.7c-5.8,9.6-32.7,16.3-50,18
		c-3.6,0.3-6.4,3.2-6.7,6.7c0,0.1-1.3,12.6-5.8,21.4c-1.1,2.2-2.4,4-3.7,5.2c-1.1-3-1.7-6.5-2-10.4
		C414.1,115.6,415.4,109.9,415.4,108.6z M395.5,150c0-5.9,2.3-11.2,5.9-14.6c0.9,3.3,1.9,6.6,4.1,9.1c0.1,13-0.3,16.4,0.6,23.2
		C400,165.4,395.5,158.3,395.5,150z M422.5,173.2c-1.3-4.5-2-9.3-2-14v-10.3c1.7-0.5,3.3-1.3,4.8-2.4c3.2-2.5,6.1-6.1,8.4-10.6
		c3.6-7,5.6-15.3,6.6-20.9c11-1.6,33.9-5.9,47.5-16c3.2,4.1,8.1,9,15.5,13.8c1.2,8,5,25.7,15.4,33.7c1.5,1.1,3.1,1.9,4.8,2.4v10.3
		c0,4.8-0.7,9.5-2,14c-6.2,20.8-25.6,35.3-47.3,35.3h-4.4C448.1,208.5,428.7,194,422.5,173.2z M528.5,280.5v0.5h-113v-0.5
		c0-19,15.6-34.5,34.8-34.5h43.4C512.9,246,528.5,261.5,528.5,280.5z M481.5,231h-19v-7.9c5.3,0.6,13.7,0.6,19,0V231z"/>
	<path class="st12" d="M410.3-81c6.9,16.8,20.6,29.7,37.2,36v11.6c-26.2,1.4-47,23.1-47,49.4v8c0,4.1,3.4,7.5,7.5,7.5h64
		c4.1,0,7.5-3.4,7.5-7.5s-3.4-7.5-7.5-7.5h-56.5V16c0-19,15.6-34.5,34.8-34.5h43.4c19.2,0,34.8,15.5,34.8,34.5v0.5h-24.2
		c-4.1,0-7.5,3.4-7.5,7.5s3.4,7.5,7.5,7.5H536c4.1,0,7.5-3.4,7.5-7.5v-8c0-26.4-20.8-48-47-49.4v-11.6c16.6-6.2,30.4-19.2,37.2-36
		c16.4-0.1,29.8-15.1,29.8-33.5c0-14.1-7.7-26.3-19-31.2c-0.1-5.2-0.6-9.4-0.9-11.1c0-3-0.3-13-4.7-23.2
		c-4.7-11-14.9-24.2-36.7-26.5c-5.5-5.4-19.7-13.3-54.2-7.6c-18.7,3.1-32.9,14.1-41.1,31.9c-5.3,11.6-6.3,22.4-6.5,25
		c-0.2,1.5-0.9,5.8-0.9,11.4c-11.3,4.9-19,17.1-19,31.2C380.5-96.1,393.8-81.1,410.3-81z M481.5-33.5h-19v-7.9
		c5.3,0.6,13.7,0.6,19,0V-33.5z M474.2-56h-4.4c-21.7,0-41.1-14.5-47.3-35.3c-1.3-4.5-2-9.3-2-14v-10.3c1.7-0.5,3.3-1.3,4.8-2.4
		c9.5-7.3,13.5-22.8,15-31.5c11-1.6,33.9-5.9,47.5-16c3.2,4.1,8.1,9,15.5,13.8c1.2,8,5,25.7,15.4,33.7c1.5,1.1,3.1,1.9,4.8,2.4v10.3
		c0,4.8-0.7,9.5-2,14C515.3-70.5,495.9-56,474.2-56z M537.9-96.8c0.9-6.8,0.4-10.2,0.6-23.2c2.3-2.6,3.3-5.8,4.1-9.1
		c3.6,3.4,5.9,8.8,5.9,14.6C548.5-106.2,544-99.1,537.9-96.8z M415.4-155.9c0-0.1,0.5-9.8,5.2-19.9c6.1-13.2,16.1-21.1,29.9-23.4
		c31.4-5.2,40.1,2.3,41.4,3.7c1,2.7,3.2,3.7,6.2,3.8c13.2,0.6,22,6.3,26.8,17.3c4.2,9.5,3.4,18,3.8,19.6c0,0.1,2.4,13.7-1.4,24.5
		c-5.5-5-8.8-18.8-9.6-26.6c-0.2-2.4-1.6-4.6-3.7-5.8c-13.9-8-17.1-16.1-17.4-17.1c-0.7-3-3-5.1-6-5.6c-3-0.5-6,1.1-7.6,3.7
		c-5.8,9.6-32.7,16.3-50,18c-3.6,0.3-6.4,3.2-6.7,6.8c-0.6,6.6-3.8,21.3-9.5,26.6c-1.2-3.3-1.8-6.9-2-10.3c0-0.1,0-0.1,0-0.2
		C414.1-148.9,415.4-154.6,415.4-155.9z M401.4-129.1c0.4,1.6,0.9,3.3,1.5,4.8c0.6,1.6,1.5,3,2.6,4.3c0.1,13-0.3,16.4,0.6,23.2
		C394.5-101.2,391.7-119.9,401.4-129.1z"/>
	<path class="st12" d="M379,217.4v-8c0-26.4-20.8-48-47-49.4v-11.6c16.6-6.2,30.4-19.2,37.2-36c16.4-0.1,29.8-15.1,29.8-33.5
		c0-14.1-7.7-26.3-19-31.2c-0.1-5.2-0.6-9.4-0.9-11.1c0-3-0.3-13-4.7-23.2c-4.7-11-14.9-24.2-36.7-26.5c-5.5-5.4-19.7-13.3-54.2-7.6
		c-4.8,0.8-9.4,2.1-13.6,4c-3.8,1.7-5.5,6.1-3.9,9.9c1.7,3.8,6.1,5.5,9.9,3.9c3.1-1.4,6.5-2.3,10.1-2.9c31.4-5.2,40.1,2.3,41.4,3.7
		c1,2.7,3.2,3.7,6.2,3.8c13.2,0.6,22,6.3,26.8,17.3c4.2,9.5,3.4,18,3.8,19.6c0,0.1,2.4,13.7-1.4,24.5c-1.3-1.2-2.5-2.9-3.6-4.9
		c-0.1-0.2-0.2-0.4-0.3-0.6c-3.2-6.3-5.1-15.3-5.7-21.1c-0.2-2.4-1.6-4.6-3.7-5.8c-13.9-8-17.1-16.1-17.4-17.1c-0.7-3-3-5.1-6-5.6
		c-3-0.5-6,1.1-7.6,3.7c-5.8,9.6-32.7,16.3-50,18c-3.6,0.3-6.4,3.2-6.7,6.8c-0.6,6.6-3.8,21.3-9.5,26.6c-1.2-3.3-1.8-6.9-2-10.3
		c0-0.1,0-0.1,0-0.2c-0.5-7.5,0.6-13.9,0.7-14c0.1-0.3,0.1-0.7,0.1-1.1c0-0.1,0.6-11.1,6.2-22c1.9-3.7,0.4-8.2-3.3-10.1
		c-3.7-1.9-8.2-0.4-10.1,3.3c-6.4,12.5-7.6,24.8-7.8,27.6c-0.2,1.5-0.9,5.8-0.9,11.4c-11.3,4.9-19,17.1-19,31.2
		c0,18.4,13.3,33.4,29.8,33.5c6.9,16.8,20.6,29.7,37.2,36V160c-26.2,1.4-47,23.1-47,49.4v8c0,4.1,3.4,7.5,7.5,7.5h128
		C375.6,224.9,379,221.6,379,217.4z M373.4,96.6c0.9-6.8,0.4-10.2,0.6-23.2c2.2-2.6,3.2-5.7,4.1-9.1c3.6,3.4,5.9,8.8,5.9,14.6
		C384,87.2,379.5,94.3,373.4,96.6z M231,78.9c0-5.9,2.3-11.2,5.9-14.6c0.9,3.3,1.9,6.5,4.1,9.1c0.1,13-0.3,16.4,0.6,23.2
		C235.5,94.3,231,87.2,231,78.9z M258,102.2c-1.3-4.5-2-9.3-2-14V77.8c1.7-0.5,3.3-1.3,4.8-2.4c9.5-7.3,13.5-22.8,15-31.5
		c11-1.6,33.9-5.9,47.5-16c3.2,4.1,8.1,9,15.5,13.8c0.8,5.2,2.7,14.4,6.7,22.4c0.2,0.4,0.4,0.8,0.6,1.2c2.1,3.9,4.8,7.5,8.1,10.1
		c1.5,1.1,3.1,1.9,4.8,2.4v10.3c0,4.8-0.7,9.5-2,14c-6.1,20.8-25.6,35.3-47.3,35.3h-4.4C283.6,137.4,264.2,122.9,258,102.2z
		 M317,152v7.9h-19V152C303.3,152.6,311.7,152.6,317,152z M364,209.9H251v-0.5c0-19,15.6-34.5,34.8-34.5h43.4
		c19.2,0,34.8,15.5,34.8,34.5L364,209.9L364,209.9z"/>
	<path class="st12" d="M698.2,112.4c16.4-0.1,29.8-15.1,29.8-33.5c0-14.1-7.7-26.3-19-31.2c-0.1-5.2-0.6-9.4-0.9-11.1
		c0-3-0.3-13-4.7-23.2c-4.7-11-14.9-24.2-36.7-26.5c-5.5-5.4-19.7-13.3-54.2-7.6c-18.7,3.1-32.9,14.1-41.1,31.9
		c-5.3,11.6-6.3,22.4-6.5,25c-0.2,1.5-0.9,5.8-0.9,11.4c-11.3,4.9-19,17.1-19,31.2c0,18.4,13.3,33.4,29.8,33.5
		c6.9,16.8,20.6,29.7,37.2,36V160c-26.2,1.4-47,23.1-47,49.4v8c0,4.1,3.4,7.5,7.5,7.5h128c4.1,0,7.5-3.4,7.5-7.5v-8
		c0-4.6-0.6-9.2-1.9-13.7c-1.1-4-5.3-6.3-9.3-5.1s-6.3,5.3-5.1,9.3c0.9,3.1,1.3,6.3,1.3,9.5v0.5H580v-0.5c0-19,15.6-34.5,34.8-34.5
		h43.4c6.1,0,12.1,1.6,17.3,4.6c3.6,2.1,8.2,0.8,10.2-2.8c2.1-3.6,0.8-8.2-2.8-10.2c-6.7-3.8-14.2-6-22-6.5v-11.6
		C677.6,142.1,691.4,129.2,698.2,112.4z M702.4,96.6c0.9-6.8,0.4-10.2,0.6-23.2c2.3-2.6,3.3-5.8,4.1-9.1c3.6,3.4,5.9,8.8,5.9,14.6
		C713,87.2,708.5,94.3,702.4,96.6z M579.9,37.5c0-0.1,0.5-9.8,5.2-19.9C591.2,4.4,601.2-3.5,615-5.8c31.4-5.2,40.1,2.3,41.4,3.7
		c1,2.7,3.2,3.7,6.2,3.8c13.2,0.6,22,6.3,26.8,17.3c4.2,9.5,3.4,18,3.8,19.6c0,0.1,2.4,13.7-1.4,24.5c-1.3-1.2-2.5-2.9-3.6-4.9
		c-0.1-0.2-0.2-0.4-0.3-0.6c-3.2-6.3-5.1-15.3-5.7-21.1c-0.2-2.4-1.6-4.6-3.7-5.8c-13.9-8-17.1-16.1-17.4-17.1c-0.7-3-3-5.1-6-5.6
		c-3-0.5-6,1.1-7.6,3.7c-5.8,9.6-32.7,16.3-50,18c-3.6,0.3-6.4,3.2-6.7,6.8c-0.6,6.6-3.8,21.3-9.5,26.6c-1.2-3.3-1.8-6.9-2-10.3
		c0-0.1,0-0.1,0-0.2C578.6,44.5,579.9,38.8,579.9,37.5z M560,78.9c0-5.9,2.3-11.2,5.9-14.6c0.9,3.3,1.9,6.5,4.1,9.1
		c0.1,13-0.3,16.4,0.6,23.2C564.5,94.3,560,87.2,560,78.9z M587,102.2c-1.3-4.5-2-9.3-2-14V77.8c1.7-0.5,3.3-1.3,4.8-2.4
		c9.5-7.3,13.5-22.8,15-31.5c11-1.6,33.9-5.9,47.5-16c3.2,4.1,8.1,9,15.5,13.8c1.7,11.5,6.2,26.6,15.4,33.7c1.5,1.1,3.1,1.9,4.8,2.4
		v10.3c0,4.8-0.7,9.5-2,14C672,149.2,601,149.2,587,102.2z M646,159.9h-19V152c5.2,0.6,13.8,0.6,19,0V159.9z"/>
	<path class="st12" d="M639.4,236.5c-4.1,0-7.5,3.4-7.5,7.5v12h-62.1c-4.1,0-7.5,3.4-7.5,7.5s3.4,7.5,7.5,7.5h69.6
		c4.1,0,7.5-3.4,7.5-7.5V244C646.9,239.9,643.5,236.5,639.4,236.5z"/>
	<path class="st12" d="M374.6,256h-62.1v-12c0-4.1-3.4-7.5-7.5-7.5c-4.1,0-7.5,3.4-7.5,7.5v19.5c0,4.1,3.4,7.5,7.5,7.5h69.6
		c4.1,0,7.5-3.4,7.5-7.5S378.7,256,374.6,256z"/>
</g>
</svg>
