<?xml version="1.0" encoding="iso-8859-1"?>
<!-- Generator: Adobe Illustrator 19.0.0, SVG Export Plug-In . SVG Version: 6.00 Build 0)  -->
<svg version="1.1" id="Capa_1" xmlns="http://www.w3.org/2000/svg" xmlns:xlink="http://www.w3.org/1999/xlink" x="0px" y="0px"
	 viewBox="0 0 512 512" style="enable-background:new 0 0 512 512;" xml:space="preserve">
<polygon style="fill:#80C9FF;" points="454.65,32.74 256.001,32.74 235.984,288.736 256.001,512 454.65,512 "/>
<rect x="57.351" y="32.74" style="fill:#CCF0FF;" width="198.65" height="479.26"/>
<g>
	<polygon style="fill:#4DB2FF;" points="406.809,114.269 256.001,114.269 245.993,129.269 256.001,144.269 406.809,144.269 	"/>
	<polygon style="fill:#4DB2FF;" points="406.809,178.057 256.001,178.057 245.993,193.057 256.001,208.057 406.809,208.057 	"/>
	<polygon style="fill:#4DB2FF;" points="406.809,241.846 256.001,241.846 245.993,256.846 256.001,271.846 406.809,271.846 	"/>
	<polygon style="fill:#4DB2FF;" points="406.809,305.634 256.001,305.634 245.993,320.634 256.001,335.634 406.809,335.634 	"/>
	<polygon style="fill:#4DB2FF;" points="406.809,369.423 256.001,369.423 245.993,384.423 256.001,399.423 406.809,399.423 	"/>
	<polygon style="fill:#4DB2FF;" points="406.809,433.211 256.001,433.211 245.993,448.211 256.001,463.211 406.809,463.211 	"/>
</g>
<g>
	<rect x="226.811" y="178.06" style="fill:#80C9FF;" width="29.19" height="30"/>
	<rect x="226.811" y="241.85" style="fill:#80C9FF;" width="29.19" height="30"/>
	<rect x="226.811" y="305.63" style="fill:#80C9FF;" width="29.19" height="30"/>
	<rect x="226.811" y="369.42" style="fill:#80C9FF;" width="29.19" height="30"/>
	<rect x="226.811" y="433.21" style="fill:#80C9FF;" width="29.19" height="30"/>
	<rect x="226.811" y="114.27" style="fill:#80C9FF;" width="29.19" height="30"/>
</g>
<polygon style="fill:#266CB2;" points="358.967,0 256.001,0 235.984,32.74 256.001,65.48 358.967,65.48 "/>
<rect x="153.031" style="fill:#5DACFF;" width="102.97" height="65.48"/>
<g>
	<polygon style="fill:#FE8100;" points="136.643,209.922 92.208,165.486 113.422,144.273 136.643,167.496 181.129,123.011 
		202.342,144.224 	"/>
	<polygon style="fill:#FE8100;" points="136.643,337.499 92.208,293.063 113.422,271.851 136.643,295.073 181.129,250.588 
		202.342,271.801 	"/>
	<polygon style="fill:#FE8100;" points="136.643,465.076 92.208,420.641 113.422,399.428 136.643,422.65 181.129,378.165 
		202.342,399.378 	"/>
</g>
<g>
</g>
<g>
</g>
<g>
</g>
<g>
</g>
<g>
</g>
<g>
</g>
<g>
</g>
<g>
</g>
<g>
</g>
<g>
</g>
<g>
</g>
<g>
</g>
<g>
</g>
<g>
</g>
<g>
</g>
</svg>
