<?xml version="1.0" encoding="iso-8859-1"?>
<!-- Generator: Adobe Illustrator 19.0.0, SVG Export Plug-In . SVG Version: 6.00 Build 0)  -->
<svg version="1.1" id="Capa_1" xmlns="http://www.w3.org/2000/svg" xmlns:xlink="http://www.w3.org/1999/xlink" x="0px" y="0px"
	 viewBox="0 0 512 512" style="enable-background:new 0 0 512 512;" xml:space="preserve">
<path style="fill:#96A5D7;" d="M397.82,103.451l-36.116-90.9c-4.056-10.208-15.62-15.197-25.828-11.141
	c-10.209,4.056-15.196,15.62-11.141,25.828l28.452,71.609l-47.689,16.628h-50.105h-0.001h-50.294h-4.513
	c-6.587,0-12.747,3.261-16.449,8.709l-29.883,43.966l-3.838-7.585c-4.959-9.801-16.925-13.727-26.726-8.768
	c-9.802,4.959-13.727,16.924-8.768,26.726l19.069,37.69c6.842,13.522,25.687,14.722,34.197,2.201l36.912-54.308v135.919h101.785
	V155.628c6.066-1.818,33.077-10.055,79-26.054C396.567,125.851,401.997,113.964,397.82,103.451z"/>
<path style="fill:#8093CF;" d="M397.82,103.451l-36.116-90.9c-4.056-10.208-15.62-15.197-25.828-11.141
	c-10.209,4.056-15.196,15.62-11.141,25.828l28.452,71.609l-47.689,16.628h-49.496v176.991l0.629,7.559h50.253V155.638
	c9.766-2.972,37.452-11.588,79-26.063C396.567,125.851,401.997,113.964,397.82,103.451z"/>
<g>
	<path style="fill:#FFB69E;" d="M361.704,12.551c-4.056-10.208-15.62-15.197-25.828-11.141
		c-10.209,4.056-15.196,15.62-11.141,25.828L361.704,12.551z"/>
	<path style="fill:#FFB69E;" d="M150.415,160.567c-4.959-9.801-16.925-13.727-26.726-8.768c-9.802,4.959-13.727,16.924-8.768,26.726
		L150.415,160.567z"/>
</g>
<g>
	<polygon style="fill:#FFFFFF;" points="328.412,36.492 365.853,22.993 361.704,12.551 324.736,27.239 	"/>
	<path style="fill:#FFFFFF;" d="M114.92,178.526l4.125,8.153l35.207-18.527l-3.838-7.585l-35.52,17.9
		C114.903,178.487,114.91,178.506,114.92,178.526z"/>
	<polygon style="fill:#FFFFFF;" points="256.001,115.477 226.661,115.477 256.001,192.466 285.341,115.477 	"/>
</g>
<path style="fill:#838387;" d="M268.733,141.802l-6.532-11.878l5.668-10.308c1.022-1.859-0.324-4.139-2.447-4.139H246.58
	c-2.121,0-3.47,2.277-2.447,4.139l5.668,10.308l-6.532,11.878c-0.9,1.637-1.193,3.539-0.827,5.371l3.432,18.721l10.127,26.573
	l10.127-26.573l3.432-18.721C269.926,145.341,269.633,143.439,268.733,141.802z"/>
<path style="fill:#68686B;" d="M265.422,115.477c2.121,0,3.47,2.277,2.447,4.139l-5.668,10.308l6.532,11.878
	c0.9,1.637,1.193,3.539,0.827,5.371l-3.432,18.721l-10.127,26.573v-76.989L265.422,115.477L265.422,115.477z"/>
<path style="fill:#414B82;" d="M217.515,512c12.405,0,22.462-10.057,22.462-22.462L251.069,310
	c0-12.405-10.057-22.462-22.462-22.462c-12.405,0-22.462,10.057-22.462,22.462l-11.093,179.538
	C195.053,501.943,205.109,512,217.515,512z"/>
<path style="fill:#1E2D64;" d="M292.998,512c12.405,0,22.462-10.057,22.462-22.462L305.292,310
	c0-12.405-10.057-22.462-22.462-22.462c-12.405,0-22.462,10.057-22.462,22.462l10.168,179.538
	C270.536,501.943,280.593,512,292.998,512z"/>
<path style="fill:#1C9585;" d="M417.484,367.947H94.516c-8.722,0-15.792-7.07-15.792-15.792V218.022
	c0-8.722,7.07-15.792,15.792-15.792h322.968c8.722,0,15.792,7.07,15.792,15.792v134.132
	C433.277,360.877,426.206,367.947,417.484,367.947z"/>
<g>
	<path style="fill:#2D5D5E;" d="M115.73,268.608l-1.756,1.09c-0.545,0.363-1.09,0.485-1.514,0.485c-1.756,0-2.966-1.877-2.966-3.754
		c0-1.272,0.545-2.481,1.756-3.208l7.991-4.843c0.484-0.303,1.09-0.424,1.756-0.424c1.938,0,4.177,1.15,4.177,2.966v38.503
		c0,1.938-2.361,2.906-4.722,2.906s-4.722-0.969-4.722-2.906C115.73,299.423,115.73,268.608,115.73,268.608z"/>
	<path style="fill:#2D5D5E;" d="M138.915,298.032c0,2.482-2.119,4.662-4.601,4.662c-2.663,0-4.662-2.18-4.662-4.662
		c0-2.542,1.999-4.662,4.662-4.662C136.797,293.37,138.915,295.488,138.915,298.032z"/>
	<path style="fill:#2D5D5E;" d="M142.667,288.406v-16.043c0-10.414,6.478-14.288,14.833-14.288s14.893,3.874,14.893,14.288v16.043
		c0,10.414-6.539,14.288-14.893,14.288S142.667,298.818,142.667,288.406z M162.948,272.362c0-4.177-2.059-6.054-5.449-6.054
		c-3.39,0-5.388,1.877-5.388,6.054v16.043c0,4.177,1.998,6.054,5.388,6.054c3.39,0,5.449-1.877,5.449-6.054V272.362z"/>
	<path style="fill:#2D5D5E;" d="M177.11,288.406v-16.043c0-10.414,6.478-14.288,14.833-14.288s14.893,3.874,14.893,14.288v16.043
		c0,10.414-6.539,14.288-14.893,14.288S177.11,298.818,177.11,288.406z M197.39,272.362c0-4.177-2.059-6.054-5.449-6.054
		c-3.39,0-5.388,1.877-5.388,6.054v16.043c0,4.177,1.998,6.054,5.388,6.054c3.39,0,5.449-1.877,5.449-6.054V272.362z"/>
	<path style="fill:#2D5D5E;" d="M211.552,288.406v-16.043c0-10.414,6.478-14.288,14.833-14.288c8.355,0,14.893,3.874,14.893,14.288
		v16.043c0,10.414-6.539,14.288-14.893,14.288C218.03,302.694,211.552,298.818,211.552,288.406z M231.833,272.362
		c0-4.177-2.059-6.054-5.449-6.054c-3.39,0-5.388,1.877-5.388,6.054v16.043c0,4.177,1.998,6.054,5.388,6.054
		c3.39,0,5.449-1.877,5.449-6.054V272.362z"/>
	<path style="fill:#2D5D5E;" d="M254.288,298.032c0,2.482-2.119,4.662-4.601,4.662c-2.663,0-4.662-2.18-4.662-4.662
		c0-2.542,1.999-4.662,4.662-4.662C252.17,293.37,254.288,295.488,254.288,298.032z"/>
	<path style="fill:#2D5D5E;" d="M258.041,288.406v-16.043c0-10.414,6.478-14.288,14.833-14.288s14.893,3.874,14.893,14.288v16.043
		c0,10.414-6.539,14.288-14.893,14.288S258.041,298.818,258.041,288.406z M278.321,272.362c0-4.177-2.059-6.054-5.449-6.054
		s-5.388,1.877-5.388,6.054v16.043c0,4.177,1.998,6.054,5.388,6.054s5.449-1.877,5.449-6.054V272.362z"/>
	<path style="fill:#2D5D5E;" d="M292.483,288.406v-16.043c0-10.414,6.478-14.288,14.833-14.288s14.893,3.874,14.893,14.288v16.043
		c0,10.414-6.539,14.288-14.893,14.288S292.483,298.818,292.483,288.406z M312.763,272.362c0-4.177-2.059-6.054-5.449-6.054
		s-5.388,1.877-5.388,6.054v16.043c0,4.177,1.998,6.054,5.388,6.054s5.449-1.877,5.449-6.054V272.362z"/>
	<path style="fill:#2D5D5E;" d="M326.925,288.406v-16.043c0-10.414,6.478-14.288,14.833-14.288s14.893,3.874,14.893,14.288v16.043
		c0,10.414-6.539,14.288-14.893,14.288S326.925,298.818,326.925,288.406z M347.207,272.362c0-4.177-2.059-6.054-5.449-6.054
		c-3.39,0-5.388,1.877-5.388,6.054v16.043c0,4.177,1.998,6.054,5.388,6.054c3.39,0,5.449-1.877,5.449-6.054V272.362z"/>
	<path style="fill:#2D5D5E;" d="M384.251,302.33c-7.364-0.246-13.378-4.05-13.378-7.978c0-2.087,1.841-5.155,4.173-5.155
		c2.577,0,4.664,3.621,9.205,4.418v-9.942c-5.646-2.148-12.273-4.787-12.273-12.642c0-7.794,5.769-11.537,12.273-12.458v-1.719
		c0-0.859,0.982-1.657,2.332-1.657c1.167,0,2.332,0.798,2.332,1.657v1.534c3.805,0.123,10.985,1.105,10.985,5.34
		c0,1.657-1.105,5.032-3.805,5.032c-2.026,0-3.191-1.964-7.18-2.27v8.96c5.585,2.087,12.089,4.971,12.089,13.256
		c0,7.609-4.91,12.212-12.089,13.378v1.78c0,0.86-1.166,1.657-2.332,1.657c-1.35,0-2.332-0.798-2.332-1.657v-1.533H384.251z
		 M384.865,273.977v-7.302c-2.761,0.553-3.928,1.964-3.928,3.436C380.938,271.89,382.534,272.995,384.865,273.977z M388.303,285.331
		v8.223c2.087-0.491,3.743-1.657,3.743-3.866C392.046,287.662,390.511,286.373,388.303,285.331z"/>
</g>
<circle style="fill:#FFB69E;" cx="255.753" cy="61.903" r="40.925"/>
<g>
</g>
<g>
</g>
<g>
</g>
<g>
</g>
<g>
</g>
<g>
</g>
<g>
</g>
<g>
</g>
<g>
</g>
<g>
</g>
<g>
</g>
<g>
</g>
<g>
</g>
<g>
</g>
<g>
</g>
</svg>
