<?xml version="1.0" encoding="utf-8"?>
<!-- Generator: Adobe Illustrator 19.0.0, SVG Export Plug-In . SVG Version: 6.00 Build 0)  -->
<svg version="1.0" id="Layer_1" xmlns="http://www.w3.org/2000/svg" xmlns:xlink="http://www.w3.org/1999/xlink" x="0px" y="0px"
	 viewBox="0 0 50 50" style="enable-background:new 0 0 50 50;" xml:space="preserve">
<style type="text/css">
	.Drop_x0020_Shadow{fill:none;}
	.Round_x0020_Corners_x0020_2_x0020_pt{fill:#FFFFFF;stroke:#000000;stroke-miterlimit:10;}
	.Live_x0020_Reflect_x0020_X{fill:none;}
	.Bevel_x0020_Soft{fill:url(#SVGID_1_);}
	.Dusk{fill:#FFFFFF;}
	.Foliage_GS{fill:#FFDD00;}
	.Pompadour_GS{fill-rule:evenodd;clip-rule:evenodd;fill:#44ADE2;}
	.st0{fill:#FFFFFF;}
	.st1{fill:#F7A31C;}
	.st2{fill:#292F5C;}
	.st3{clip-path:url(#XMLID_14_);fill:#292F5C;}
	.st4{fill:#203061;}
	.st5{fill:none;}
</style>
<linearGradient id="SVGID_1_" gradientUnits="userSpaceOnUse" x1="0" y1="0" x2="0.7071" y2="0.7071">
	<stop  offset="0" style="stop-color:#DEDFE3"/>
	<stop  offset="0.1738" style="stop-color:#D8D9DD"/>
	<stop  offset="0.352" style="stop-color:#C9CACD"/>
	<stop  offset="0.5323" style="stop-color:#B4B5B8"/>
	<stop  offset="0.7139" style="stop-color:#989A9C"/>
	<stop  offset="0.8949" style="stop-color:#797C7E"/>
	<stop  offset="1" style="stop-color:#656B6C"/>
</linearGradient>
<g id="XMLID_2_">
	<g id="XMLID_85_">
		<path id="XMLID_13_" class="st0" d="M19.5,3.1c0,0-2.1,2.1-2.6,3.4c-0.7,1.5-4.2,8.7-4.2,8.7l10.2,13.3l-3,2.9
			c0,0-6.1,0.5-6.9-1.5c0,0,2.4-0.3,3.3-1.6c0,0-4.8,2.1-6.4,0c0,0,3.2-0.4,4.1-1.6c0,0-5.7,2.3-7.2-0.9c0,0,3.7,0.3,4.5-0.8
			c0,0-6.1,1.3-6.7-1.9c0,0,2.3,0.8,3.5,0.2c0,0-5.6-0.5-5.4-3.1c0,0,3.3,1.3,4.4,0.8c0,0-5.4-0.8-4.6-4.6c0,0,2.8,2.3,4.2,2.2
			c0,0-4.2-2.2-2.8-5.5c0,0,2.9,3.7,3.3,3.4c0,0-4.1-4.6-1.6-7c0,0,1.5,4.4,2.3,4.4c0,0-2.9-5.5,0.1-7.4c0,0,0.3,4.3,1,4.6
			c0,0-1.3-5.6,1.5-6.7c0,0-0.5,5.4,0.2,5.6c0,0-0.2-6.9,3.1-6.9c0,0-1.2,3.7-0.8,4.7c0,0,2.1-5.6,6.7-5.2l0.2,0.1L19.5,3.1z"/>
		<path id="XMLID_22_" class="st0" d="M30.9,3.1c0,0,2.1,2.1,2.6,3.4c0.7,1.5,4.2,8.7,4.2,8.7L27,28.9l3.5,2.4c0,0,6.1,0.5,6.9-1.5
			c0,0-2.4-0.3-3.3-1.6c0,0,4.8,2.1,6.4,0c0,0-3.2-0.4-4.1-1.6c0,0,5.7,2.3,7.2-0.9c0,0-3.7,0.3-4.5-0.8c0,0,6.1,1.3,6.7-1.9
			c0,0-2.3,0.8-3.5,0.2c0,0,5.6-0.5,5.4-3.1c0,0-3.3,1.3-4.4,0.8c0,0,5.4-0.8,4.6-4.6c0,0-2.8,2.3-4.2,2.2c0,0,4.2-2.2,2.8-5.5
			c0,0-2.9,3.7-3.3,3.4c0,0,4.1-4.6,1.6-7c0,0-1.5,4.4-2.3,4.4c0,0,2.9-5.5-0.1-7.4c0,0-0.3,4.3-1,4.6c0,0,1.3-5.6-1.5-6.7
			c0,0,0.5,5.4-0.2,5.6c0,0,0.2-6.9-3.1-6.9c0,0,1.2,3.7,0.8,4.7c0,0-2.1-5.6-6.7-5.2l-0.2,0.1L30.9,3.1z"/>
	</g>
	<g id="XMLID_86_">
		<g id="XMLID_12_">
			<path id="XMLID_38_" class="st0" d="M25.2,19.1h-9.4v12.1c0,5.2,3.2,7.9,9,9.6c0.1,0,0.3,0.1,0.4,0.2c0.1-0.1,0.3-0.1,0.4-0.2
				c5.7-1.7,9-4.5,9-9.6V19.1H25.2z"/>
		</g>
		<path id="XMLID_5_" class="st1" d="M25.2,28.1h9.7c0,0,2.7,10.3-9.7,13.2V28.1z"/>
		<rect id="XMLID_4_" x="15.4" y="18.8" class="st1" width="9.8" height="9.3"/>
		<g id="XMLID_8_">
			<path id="XMLID_7_" class="st0" d="M34.6,19.1v12.1c0,5.2-3.2,7.9-9,9.6c-0.1,0-0.3,0.1-0.4,0.2C25,41,24.9,41,24.7,40.9
				c-5.7-1.7-9-4.5-9-9.6V19.1h9.4H34.6 M35.2,18.5h-0.6h-9.4h-9.4h-0.6v0.6v12.1c0,2.7,0.8,4.8,2.5,6.5c1.5,1.5,3.8,2.8,6.9,3.7
				c0.1,0,0.2,0.1,0.3,0.1l0.3,0.1l0.3-0.1c0.1-0.1,0.2-0.1,0.3-0.1c3.1-1,5.4-2.2,6.9-3.7c1.7-1.7,2.5-3.9,2.5-6.5V19.1V18.5
				L35.2,18.5z"/>
		</g>
		<g id="XMLID_20_">
			<path id="XMLID_116_" class="st2" d="M21.8,26.2l-0.5-1.5h-2l-0.5,1.5h-0.9l2-5.3h0.9l2,5.3H21.8z M21.1,24l-0.5-1.4
				c0-0.1-0.1-0.2-0.1-0.5c-0.1-0.2-0.1-0.4-0.1-0.5c-0.1,0.3-0.2,0.6-0.3,1L19.6,24H21.1z"/>
		</g>
		<rect id="XMLID_3_" x="15.8" y="27.9" class="st0" width="18.8" height="0.5"/>
		<rect id="XMLID_6_" x="24.9" y="18.8" class="st0" width="0.5" height="22.2"/>
		<g id="XMLID_11_">
			<path id="XMLID_18_" class="st2" d="M31.1,35.8h-3.2v-5.3h3.2v0.7h-2.4v1.4H31v0.7h-2.2V35h2.4V35.8z"/>
		</g>
		<g id="XMLID_39_">
			<g id="XMLID_40_">
				<defs>
					<rect id="XMLID_41_" x="27.2" y="20.9" width="5.9" height="5.3"/>
				</defs>
				<clipPath id="XMLID_14_">
					<use xlink:href="#XMLID_41_"  style="overflow:visible;"/>
				</clipPath>
				<path id="XMLID_42_" class="st3" d="M32.8,25.7v-2.4c0-0.1-0.1-0.2-0.3-0.2h-1.3v-0.6c0-0.1,0-0.1-0.1-0.1l-1-0.5c0,0,0,0,0,0
					v-0.3h0.5c0,0,0.1,0,0.1-0.1v-0.3c0,0,0-0.1-0.1-0.1h-0.5v0c0,0,0-0.1-0.1-0.1c0,0-0.1,0-0.1,0.1v0.8c0,0,0,0,0,0l-1,0.5
					c-0.1,0-0.1,0.1-0.1,0.1v0.6h-1.3c-0.1,0-0.3,0.1-0.3,0.2v2.4c-0.1,0-0.2,0.1-0.2,0.3c0,0.2,0.1,0.3,0.3,0.3h5.2
					c0.2,0,0.3-0.1,0.3-0.3C33,25.8,33,25.7,32.8,25.7L32.8,25.7z M31.8,23.9c0-0.1,0.1-0.1,0.2-0.1h0.3c0.1,0,0.2,0.1,0.2,0.1v0.2
					c0,0.1-0.1,0.1-0.2,0.1H32c-0.1,0-0.2-0.1-0.2-0.1V23.9z M31.8,24.6c0-0.1,0.1-0.1,0.2-0.1h0.3c0.1,0,0.2,0.1,0.2,0.1v0.2
					c0,0.1-0.1,0.1-0.2,0.1H32c-0.1,0-0.2-0.1-0.2-0.1V24.6z M30.9,23.9c0-0.1,0.1-0.1,0.2-0.1h0.3c0.1,0,0.2,0.1,0.2,0.1v0.2
					c0,0.1-0.1,0.1-0.2,0.1h-0.3c-0.1,0-0.2-0.1-0.2-0.1V23.9z M30.9,24.6c0-0.1,0.1-0.1,0.2-0.1h0.3c0.1,0,0.2,0.1,0.2,0.1v0.2
					c0,0.1-0.1,0.1-0.2,0.1h-0.3c-0.1,0-0.2-0.1-0.2-0.1V24.6z M30.1,22.4c0.2,0,0.4,0.2,0.4,0.4c0,0.2-0.2,0.4-0.4,0.4
					c-0.2,0-0.4-0.2-0.4-0.4C29.7,22.6,29.9,22.4,30.1,22.4L30.1,22.4z M29.7,24.6c0-0.1,0.1-0.1,0.2-0.1h0.6c0.1,0,0.2,0.1,0.2,0.1
					v1c0,0,0,0,0,0.1h-0.8c0,0,0,0,0-0.1L29.7,24.6L29.7,24.6z M28.7,23.9c0-0.1,0.1-0.1,0.2-0.1h0.3c0.1,0,0.2,0.1,0.2,0.1v0.2
					c0,0.1-0.1,0.1-0.2,0.1h-0.3c-0.1,0-0.2-0.1-0.2-0.1V23.9z M28.7,24.6c0-0.1,0.1-0.1,0.2-0.1h0.3c0.1,0,0.2,0.1,0.2,0.1v0.2
					c0,0.1-0.1,0.1-0.2,0.1h-0.3c-0.1,0-0.2-0.1-0.2-0.1V24.6z M27.8,23.9c0-0.1,0.1-0.1,0.2-0.1h0.3c0.1,0,0.2,0.1,0.2,0.1v0.2
					c0,0.1-0.1,0.1-0.2,0.1H28c-0.1,0-0.2-0.1-0.2-0.1V23.9z M27.8,24.6c0-0.1,0.1-0.1,0.2-0.1h0.3c0.1,0,0.2,0.1,0.2,0.1v0.2
					c0,0.1-0.1,0.1-0.2,0.1H28c-0.1,0-0.2-0.1-0.2-0.1V24.6z M27.8,24.6"/>
			</g>
		</g>
		<g id="XMLID_97_">
			<path id="XMLID_98_" class="st4" d="M18.5,30.8L18.5,30.8c-0.1,0-0.2,0.1-0.2,0.2v3.2c0,0.1,0.1,0.2,0.2,0.2
				c0.5,0,1.3,0.1,1.9,0.7v-3.3c0,0,0-0.1,0-0.1C19.9,31,19,30.8,18.5,30.8L18.5,30.8z M18.5,30.8"/>
			<path id="XMLID_101_" class="st4" d="M22.8,34.2V31c0,0,0,0,0,0c0-0.1-0.1-0.2-0.2-0.2h0c-0.5,0-1.4,0.1-1.8,0.9c0,0,0,0.1,0,0.1
				v3.3c0.6-0.6,1.4-0.7,1.9-0.7C22.7,34.4,22.8,34.3,22.8,34.2L22.8,34.2z M22.8,34.2"/>
			<path id="XMLID_104_" class="st4" d="M23.2,31.6h-0.2v2.6c0,0.3-0.2,0.5-0.5,0.5c-0.4,0-1.1,0.1-1.6,0.5c0.8-0.2,1.7-0.1,2.2,0
				c0.1,0,0.2,0,0.3-0.2v-3.3C23.4,31.7,23.3,31.6,23.2,31.6L23.2,31.6z M23.2,31.6"/>
			<path id="XMLID_107_" class="st4" d="M18,34.2v-2.6h-0.4l0,3.6c0,0.1,0.1,0.2,0.3,0.2c0.5-0.1,1.4-0.2,2.2,0
				c-0.5-0.5-1.2-0.5-1.6-0.5C18.2,34.7,18,34.5,18,34.2L18,34.2z M18,34.2"/>
		</g>
	</g>
	<g id="XMLID_84_">
		<path id="XMLID_x5F_15_x5F_" class="st5" d="M34.6,44.2c8.6-5.2,11.3-16.4,6.1-25s-16.4-11.3-25-6.1s-11.3,16.4-6.1,25
			S26,49.4,34.6,44.2z"/>
		<text id="XMLID_110_">		<textPath  xlink:href="#XMLID_x5F_15_x5F_" startOffset="100%">
<tspan  class="st0" style="font-family:'Lato-Black'; font-size:3.1072px; letter-spacing:322;">Academic Eye</tspan>		</textPath>
</text>
		<path id="XMLID_115_" class="st0" d="M41.5,39.2c-0.1,0-0.3,0.1-0.3,0.2c-3.4,5.4-9.4,9-16.2,9s-12.8-3.6-16.2-9
			c-0.1-0.1-0.2-0.2-0.3-0.2h0c-0.3,0-0.5,0.3-0.3,0.6c0.8,1.2,1.7,2.4,2.8,3.5c3.8,3.8,8.8,5.8,14.1,5.8S35.3,47,39,43.2
			c1.1-1.1,2-2.2,2.8-3.5C42,39.5,41.8,39.2,41.5,39.2L41.5,39.2z"/>
	</g>
</g>
</svg>
