<?xml version="1.0" encoding="utf-8"?>
<!-- Generator: Adobe Illustrator 19.0.0, SVG Export Plug-In . SVG Version: 6.00 Build 0)  -->
<svg version="1.1" id="Layer_1" xmlns="http://www.w3.org/2000/svg" xmlns:xlink="http://www.w3.org/1999/xlink" x="0px" y="0px"
	 viewBox="0 0 50 50" style="enable-background:new 0 0 50 50;" xml:space="preserve">
<style type="text/css">
	.Drop_x0020_Shadow{fill:none;}
	.Round_x0020_Corners_x0020_2_x0020_pt{fill:#FFFFFF;stroke:#000000;stroke-miterlimit:10;}
	.Live_x0020_Reflect_x0020_X{fill:none;}
	.Bevel_x0020_Soft{fill:url(#SVGID_1_);}
	.Dusk{fill:#FFFFFF;}
	.Foliage_GS{fill:#FFDD00;}
	.Pompadour_GS{fill-rule:evenodd;clip-rule:evenodd;fill:#44ADE2;}
	.st0{fill:#FFFFFF;}
	.st1{fill:#F7A31C;}
	.st2{fill:#292F5C;}
	.st3{fill:#203061;}
	.st4{clip-path:url(#XMLID_14_);fill:#292F5C;}
	.st5{fill:none;}
</style>
<linearGradient id="SVGID_1_" gradientUnits="userSpaceOnUse" x1="0" y1="0" x2="0.7071" y2="0.7071">
	<stop  offset="0" style="stop-color:#DEDFE3"/>
	<stop  offset="0.1738" style="stop-color:#D8D9DD"/>
	<stop  offset="0.352" style="stop-color:#C9CACD"/>
	<stop  offset="0.5323" style="stop-color:#B4B5B8"/>
	<stop  offset="0.7139" style="stop-color:#989A9C"/>
	<stop  offset="0.8949" style="stop-color:#797C7E"/>
	<stop  offset="1" style="stop-color:#656B6C"/>
</linearGradient>
<g id="XMLID_1_">
	<g id="XMLID_85_">
		<path id="XMLID_12_" class="st0" d="M19.2,1.8c0,0-2.1,2.2-2.7,3.5c-0.7,1.6-4.3,8.8-4.3,8.8l10.4,13.5l-3.1,2.9
			c0,0-6.2,0.5-7.1-1.5c0,0,2.5-0.4,3.4-1.6c0,0-4.9,2.2-6.5,0c0,0,3.2-0.4,4.1-1.7c0,0-5.8,2.3-7.3-0.9c0,0,3.7,0.3,4.6-0.8
			c0,0-6.3,1.3-6.8-1.9c0,0,2.3,0.8,3.6,0.2c0,0-5.7-0.5-5.5-3.1c0,0,3.4,1.3,4.5,0.8c0,0-5.5-0.8-4.7-4.6c0,0,2.8,2.4,4.3,2.2
			c0,0-4.3-2.3-2.8-5.6c0,0,2.9,3.8,3.4,3.5c0,0-4.1-4.7-1.6-7.1c0,0,1.5,4.5,2.4,4.5c0,0-2.9-5.6,0.1-7.6c0,0,0.3,4.4,1,4.7
			c0,0-1.3-5.7,1.6-6.8c0,0-0.6,5.5,0.2,5.7c0,0-0.2-7.1,3.1-7.1c0,0-1.2,3.7-0.8,4.8c0,0,2.1-5.6,6.8-5.3l0.2,0.1L19.2,1.8z"/>
		<path id="XMLID_22_" class="st0" d="M30.8,1.8c0,0,2.1,2.2,2.7,3.5c0.7,1.6,4.3,8.8,4.3,8.8l-10.9,14l3.6,2.4c0,0,6.2,0.5,7.1-1.5
			c0,0-2.5-0.4-3.4-1.6c0,0,4.9,2.2,6.5,0c0,0-3.2-0.4-4.1-1.7c0,0,5.8,2.3,7.3-0.9c0,0-3.7,0.3-4.6-0.8c0,0,6.3,1.3,6.8-1.9
			c0,0-2.3,0.8-3.6,0.2c0,0,5.7-0.5,5.5-3.1c0,0-3.4,1.3-4.5,0.8c0,0,5.5-0.8,4.7-4.6c0,0-2.8,2.4-4.3,2.2c0,0,4.3-2.3,2.8-5.6
			c0,0-2.9,3.8-3.4,3.5c0,0,4.1-4.7,1.6-7.1c0,0-1.5,4.5-2.4,4.5c0,0,2.9-5.6-0.1-7.6c0,0-0.3,4.4-1,4.7c0,0,1.3-5.7-1.6-6.8
			c0,0,0.6,5.5-0.2,5.7c0,0,0.2-7.1-3.1-7.1c0,0,1.2,3.7,0.8,4.8c0,0-2.1-5.6-6.8-5.3l-0.2,0.1L30.8,1.8z"/>
	</g>
	<g id="XMLID_86_">
		<g id="XMLID_4_">
			<path id="XMLID_37_" class="st0" d="M25,18.2h-9.6v12.3c0,5.3,3.3,8,9.1,9.8c0.1,0,0.3,0.1,0.4,0.2c0.1-0.1,0.3-0.1,0.4-0.2
				c5.8-1.8,9.1-4.6,9.1-9.8V18.2H25z"/>
		</g>
		<path id="XMLID_5_" class="st1" d="M25,27.3h9.8c0,0,2.7,10.5-9.8,13.5V27.3z"/>
		<rect id="XMLID_2_" x="15.1" y="17.9" class="st1" width="9.9" height="9.5"/>
		<g id="XMLID_8_">
			<path id="XMLID_7_" class="st0" d="M34.5,18.2v12.3c0,5.3-3.3,8-9.1,9.8c-0.1,0-0.3,0.1-0.4,0.2c-0.1-0.1-0.3-0.1-0.4-0.2
				c-5.8-1.8-9.1-4.6-9.1-9.8V18.2H25H34.5 M35.2,17.6h-0.6H25h-9.6h-0.6v0.6v12.3c0,2.7,0.8,4.9,2.6,6.7c1.5,1.6,3.8,2.8,7,3.8
				c0.1,0,0.2,0.1,0.4,0.1l0.3,0.1l0.3-0.1c0.1-0.1,0.2-0.1,0.4-0.1c3.2-1,5.5-2.2,7-3.8c1.7-1.7,2.6-3.9,2.6-6.7V18.2V17.6
				L35.2,17.6z"/>
		</g>
		<g id="XMLID_20_">
			<path id="XMLID_116_" class="st2" d="M21.6,25.4l-0.5-1.5h-2l-0.5,1.5h-0.9l2-5.4h1l2,5.4H21.6z M20.8,23.1l-0.5-1.5
				c0-0.1-0.1-0.3-0.2-0.5c-0.1-0.2-0.1-0.4-0.1-0.5c-0.1,0.3-0.2,0.6-0.3,1l-0.5,1.4H20.8z"/>
		</g>
		<rect id="XMLID_3_" x="15.4" y="27.1" class="st3" width="19.1" height="0.6"/>
		<rect id="XMLID_6_" x="24.7" y="17.9" class="st3" width="0.6" height="22.6"/>
		<g id="XMLID_11_">
			<path id="XMLID_18_" class="st2" d="M31,35.1h-3.3v-5.4H31v0.7h-2.4v1.5h2.3v0.7h-2.3v1.7H31V35.1z"/>
		</g>
		<g id="XMLID_39_">
			<g id="XMLID_40_">
				<defs>
					<rect id="XMLID_41_" x="27" y="20" width="6" height="5.4"/>
				</defs>
				<clipPath id="XMLID_14_">
					<use xlink:href="#XMLID_41_"  style="overflow:visible;"/>
				</clipPath>
				<path id="XMLID_42_" class="st4" d="M32.8,24.8v-2.4c0-0.1-0.1-0.2-0.3-0.2h-1.3v-0.7c0-0.1,0-0.1-0.1-0.2l-1-0.5c0,0,0,0,0,0
					v-0.3h0.6c0,0,0.1,0,0.1-0.1v-0.3c0,0,0-0.1-0.1-0.1h-0.6v0c0,0,0-0.1-0.1-0.1c0,0-0.1,0-0.1,0.1v0.8c0,0,0,0,0,0l-1,0.5
					c-0.1,0-0.1,0.1-0.1,0.2v0.7h-1.3c-0.1,0-0.3,0.1-0.3,0.2v2.4c-0.1,0-0.2,0.1-0.2,0.3c0,0.2,0.1,0.3,0.3,0.3h5.3
					c0.2,0,0.3-0.1,0.3-0.3C33,25,32.9,24.9,32.8,24.8L32.8,24.8z M31.7,23c0-0.1,0.1-0.1,0.2-0.1h0.3c0.1,0,0.2,0.1,0.2,0.1v0.3
					c0,0.1-0.1,0.1-0.2,0.1h-0.3c-0.1,0-0.2-0.1-0.2-0.1V23z M31.7,23.8c0-0.1,0.1-0.1,0.2-0.1h0.3c0.1,0,0.2,0.1,0.2,0.1V24
					c0,0.1-0.1,0.1-0.2,0.1h-0.3c-0.1,0-0.2-0.1-0.2-0.1V23.8z M30.8,23c0-0.1,0.1-0.1,0.2-0.1h0.3c0.1,0,0.2,0.1,0.2,0.1v0.3
					c0,0.1-0.1,0.1-0.2,0.1H31c-0.1,0-0.2-0.1-0.2-0.1V23z M30.8,23.8c0-0.1,0.1-0.1,0.2-0.1h0.3c0.1,0,0.2,0.1,0.2,0.1V24
					c0,0.1-0.1,0.1-0.2,0.1H31c-0.1,0-0.2-0.1-0.2-0.1V23.8z M30,21.5c0.2,0,0.4,0.2,0.4,0.4c0,0.2-0.2,0.4-0.4,0.4
					c-0.2,0-0.4-0.2-0.4-0.4C29.6,21.7,29.8,21.5,30,21.5L30,21.5z M29.6,23.7c0-0.1,0.1-0.1,0.2-0.1h0.6c0.1,0,0.2,0.1,0.2,0.1v1.1
					c0,0,0,0,0,0.1h-0.8c0,0,0,0,0-0.1L29.6,23.7L29.6,23.7z M28.6,23c0-0.1,0.1-0.1,0.2-0.1H29c0.1,0,0.2,0.1,0.2,0.1v0.3
					c0,0.1-0.1,0.1-0.2,0.1h-0.3c-0.1,0-0.2-0.1-0.2-0.1V23z M28.6,23.8c0-0.1,0.1-0.1,0.2-0.1H29c0.1,0,0.2,0.1,0.2,0.1V24
					c0,0.1-0.1,0.1-0.2,0.1h-0.3c-0.1,0-0.2-0.1-0.2-0.1V23.8z M27.7,23c0-0.1,0.1-0.1,0.2-0.1h0.3c0.1,0,0.2,0.1,0.2,0.1v0.3
					c0,0.1-0.1,0.1-0.2,0.1h-0.3c-0.1,0-0.2-0.1-0.2-0.1V23z M27.7,23.8c0-0.1,0.1-0.1,0.2-0.1h0.3c0.1,0,0.2,0.1,0.2,0.1V24
					c0,0.1-0.1,0.1-0.2,0.1h-0.3c-0.1,0-0.2-0.1-0.2-0.1V23.8z M27.7,23.8"/>
			</g>
		</g>
		<g id="XMLID_97_">
			<path id="XMLID_98_" class="st3" d="M18.2,30.1L18.2,30.1c-0.1,0-0.2,0.1-0.2,0.2l0,3.2c0,0.1,0.1,0.2,0.2,0.2
				c0.5,0,1.3,0.1,1.9,0.7v-3.3c0,0,0-0.1,0-0.1C19.6,30.2,18.7,30.1,18.2,30.1L18.2,30.1z M18.2,30.1"/>
			<path id="XMLID_101_" class="st3" d="M22.5,33.5l0-3.2c0,0,0,0,0,0c0-0.1-0.1-0.2-0.2-0.2h0c-0.5,0-1.4,0.1-1.9,0.9
				c0,0,0,0.1,0,0.1v3.3c0.6-0.6,1.4-0.7,1.9-0.7C22.4,33.7,22.5,33.6,22.5,33.5L22.5,33.5z M22.5,33.5"/>
			<path id="XMLID_104_" class="st3" d="M23,30.8h-0.2v2.7c0,0.3-0.2,0.5-0.5,0.5c-0.4,0-1.1,0.1-1.6,0.5c0.8-0.2,1.7-0.1,2.2,0
				c0.1,0,0.2,0,0.3-0.2l0-3.4C23.2,30.9,23.1,30.8,23,30.8L23,30.8z M23,30.8"/>
			<path id="XMLID_107_" class="st3" d="M17.7,33.5v-2.7h-0.4v3.6c0,0.1,0.2,0.2,0.3,0.2c0.5-0.1,1.4-0.2,2.2,0
				c-0.5-0.5-1.2-0.5-1.6-0.5C17.9,34,17.7,33.8,17.7,33.5L17.7,33.5z M17.7,33.5"/>
		</g>
	</g>
	<g id="XMLID_84_">
		<path id="XMLID_x5F_15_x5F_" class="st5" d="M34.6,43.7c8.7-5.3,11.5-16.7,6.2-25.4S24.1,6.8,15.4,12.1S3.8,28.8,9.1,37.5
			S25.8,49,34.6,43.7z"/>
		<text id="XMLID_110_">		<textPath  xlink:href="#XMLID_x5F_15_x5F_" startOffset="100%">
<tspan  class="st0" style="font-family:'Lato-Black'; font-size:3.1622px; letter-spacing:322;">Academic Eye</tspan>		</textPath>
</text>
		<path id="XMLID_115_" class="st0" d="M41.6,38.6c-0.1,0-0.3,0.1-0.3,0.2c-3.5,5.5-9.6,9.1-16.5,9.1s-13-3.6-16.5-9.1
			c-0.1-0.1-0.2-0.2-0.3-0.2h0c-0.3,0-0.5,0.3-0.3,0.6c0.8,1.3,1.7,2.5,2.8,3.5c3.8,3.8,8.9,5.9,14.3,5.9s10.5-2.1,14.3-5.9
			c1.1-1.1,2-2.3,2.8-3.5C42.1,38.9,41.9,38.6,41.6,38.6L41.6,38.6z"/>
	</g>
</g>
</svg>
