<?xml version="1.0" encoding="utf-8"?>
<!-- Generator: Adobe Illustrator 19.0.0, SVG Export Plug-In . SVG Version: 6.00 Build 0)  -->
<svg version="1.1" id="Layer_1" xmlns="http://www.w3.org/2000/svg" xmlns:xlink="http://www.w3.org/1999/xlink" x="0px" y="0px"
	 viewBox="192 -192 464 464" style="enable-background:new 192 -192 464 464;" xml:space="preserve">
<style type="text/css">
	.st0{fill:#D92C48;}
	.st1{fill:#F23051;}
	.st2{fill:#238892;}
	.st3{fill:#394D5C;}
	.st4{fill:#F6BF9B;}
	.st5{fill:#EFA47B;}
	.st6{fill:#FDBD40;}
	.st7{fill:#E9686A;}
</style>
<g>
	<path class="st0" d="M424,36c-13.1,0-23.7-10.6-23.7-23.7s10.6-23.7,23.7-23.7s23.7,10.6,23.7,23.7S437.1,36,424,36z"/>
	<path class="st1" d="M424-189c-30.9,0-56,25.1-56,56c0,16.7,7.3,32.2,20,42.9l29.3,57.4c1.3,2.5,3.9,4.1,6.7,4.1s5.4-1.6,6.7-4.1
		L460-90.1c12.7-10.7,20-26.2,20-42.9C480-163.8,454.9-189,424-189z M424-109.3c-13.1,0-23.7-10.6-23.7-23.7s10.6-23.7,23.7-23.7
		s23.7,10.6,23.7,23.7S437.1-109.3,424-109.3z"/>
	<path class="st0" d="M480-133c0,16.7-7.3,32.2-20,42.9l-29.3,57.4c-1.3,2.5-3.9,4.1-6.7,4.1v-80.7c13.1,0,23.7-10.6,23.7-23.7
		s-10.6-23.7-23.7-23.7V-189C454.9-189,480-163.8,480-133z"/>
</g>
<g>
	<path class="st2" d="M306.4,125.9h235.1c11.3,0,20.4,9.2,20.4,20.4V269H286V146.3C286,135,295.2,125.9,306.4,125.9z"/>
	<path class="st3" d="M337.1,105.4h10.2c5.6,0,10.2,4.6,10.2,10.2v51.1h-30.7v-51.1C326.9,110,331.5,105.4,337.1,105.4z"/>
	<path class="st3" d="M500.7,105.4h10.2c5.6,0,10.2,4.6,10.2,10.2v51.1h-30.7v-51.1C490.4,110,495,105.4,500.7,105.4z"/>
	<path class="st4" d="M378-27.4h92v132.9h-92V-27.4z"/>
	<path class="st3" d="M378-27.4h92V3.2h-92V-27.4z"/>
	<path class="st5" d="M378,64.6c-11.3,0-20.4-9.2-20.4-20.4s9.2-20.4,20.4-20.4V64.6z"/>
	<path class="st5" d="M470,23.7c11.3,0,20.4,9.2,20.4,20.4s-9.2,20.4-20.4,20.4V23.7z"/>
	<path class="st6" d="M326.9,228.1h194.2V269H326.9V228.1z"/>
	<path class="st7" d="M337.1,156.6h173.8c16.9,0,30.7,13.7,30.7,30.7v40.9H306.4v-40.9C306.4,170.3,320.2,156.6,337.1,156.6z"/>
	<g>
		<path class="st3" d="M347.3,207.7H378v40.9h-30.7V207.7z"/>
		<path class="st3" d="M464.9,207.7h30.7v40.9h-30.7V207.7z"/>
	</g>
</g>
</svg>
